%YAML 1.1
%TAG !u! tag:unity3d.com,2011:
--- !u!74 &7400000
AnimationClip:
  m_ObjectHideFlags: 0
  m_PrefabParentObject: {fileID: 0}
  m_PrefabInternal: {fileID: 0}
  m_Name: Coin_2_Animation
  serializedVersion: 6
  m_Legacy: 0
  m_Compressed: 0
  m_UseHighQualityCurve: 1
  m_RotationCurves: []
  m_CompressedRotationCurves: []
  m_EulerCurves:
  - curve:
      serializedVersion: 2
      m_Curve:
      - serializedVersion: 2
        time: 0
        value: {x: 0, y: 0, z: 0}
        inSlope: {x: 0, y: 0, z: 0}
        outSlope: {x: 0, y: 0, z: 0}
        tangentMode: 0
      - serializedVersion: 2
        time: 0.33333334
        value: {x: 0, y: 0, z: 30}
        inSlope: {x: 0, y: 0, z: 0}
        outSlope: {x: 0, y: 0, z: 0}
        tangentMode: 0
      - serializedVersion: 2
        time: 0.6666667
        value: {x: 0, y: 0, z: 30}
        inSlope: {x: 0, y: 0, z: 0}
        outSlope: {x: 0, y: 0, z: 0}
        tangentMode: 0
      m_PreInfinity: 2
      m_PostInfinity: 2
      m_RotationOrder: 4
    path: 
  m_PositionCurves: []
  m_ScaleCurves: []
  m_FloatCurves: []
  m_PPtrCurves:
  - curve:
    - time: 0
      value: {fileID: 21300000, guid: bdca1179589b0c74ab137e7b57cf6687, type: 3}
    - time: 0.033333335
      value: {fileID: 21300002, guid: bdca1179589b0c74ab137e7b57cf6687, type: 3}
    - time: 0.06666667
      value: {fileID: 21300004, guid: bdca1179589b0c74ab137e7b57cf6687, type: 3}
    - time: 0.1
      value: {fileID: 21300006, guid: bdca1179589b0c74ab137e7b57cf6687, type: 3}
    - time: 0.13333334
      value: {fileID: 21300008, guid: bdca1179589b0c74ab137e7b57cf6687, type: 3}
    - time: 0.16666667
      value: {fileID: 21300010, guid: bdca1179589b0c74ab137e7b57cf6687, type: 3}
    - time: 0.2
      value: {fileID: 21300012, guid: bdca1179589b0c74ab137e7b57cf6687, type: 3}
    - time: 0.23333333
      value: {fileID: 21300014, guid: bdca1179589b0c74ab137e7b57cf6687, type: 3}
    - time: 0.26666668
      value: {fileID: 21300016, guid: bdca1179589b0c74ab137e7b57cf6687, type: 3}
    - time: 0.3
      value: {fileID: 21300018, guid: bdca1179589b0c74ab137e7b57cf6687, type: 3}
    - time: 0.33333334
      value: {fileID: 21300000, guid: bdca1179589b0c74ab137e7b57cf6687, type: 3}
    - time: 0.36666667
      value: {fileID: 21300002, guid: bdca1179589b0c74ab137e7b57cf6687, type: 3}
    - time: 0.4
      value: {fileID: 21300004, guid: bdca1179589b0c74ab137e7b57cf6687, type: 3}
    - time: 0.43333334
      value: {fileID: 21300006, guid: bdca1179589b0c74ab137e7b57cf6687, type: 3}
    - time: 0.4666667
      value: {fileID: 21300008, guid: bdca1179589b0c74ab137e7b57cf6687, type: 3}
    - time: 0.5
      value: {fileID: 21300010, guid: bdca1179589b0c74ab137e7b57cf6687, type: 3}
    - time: 0.53333336
      value: {fileID: 21300012, guid: bdca1179589b0c74ab137e7b57cf6687, type: 3}
    - time: 0.56666666
      value: {fileID: 21300014, guid: bdca1179589b0c74ab137e7b57cf6687, type: 3}
    - time: 0.6
      value: {fileID: 21300016, guid: bdca1179589b0c74ab137e7b57cf6687, type: 3}
    - time: 0.6333333
      value: {fileID: 21300018, guid: bdca1179589b0c74ab137e7b57cf6687, type: 3}
    attribute: m_Sprite
    path: 
    classID: 212
    script: {fileID: 0}
  m_SampleRate: 30
  m_WrapMode: 0
  m_Bounds:
    m_Center: {x: 0, y: 0, z: 0}
    m_Extent: {x: 0, y: 0, z: 0}
  m_ClipBindingConstant:
    genericBindings:
    - serializedVersion: 2
      path: 0
      attribute: 4
      script: {fileID: 0}
      typeID: 4
      customType: 14
      isPPtrCurve: 0
    - serializedVersion: 2
      path: 0
      attribute: 0
      script: {fileID: 0}
      typeID: 212
      customType: 23
      isPPtrCurve: 1
    pptrCurveMapping:
    - {fileID: 21300000, guid: bdca1179589b0c74ab137e7b57cf6687, type: 3}
    - {fileID: 21300002, guid: bdca1179589b0c74ab137e7b57cf6687, type: 3}
    - {fileID: 21300004, guid: bdca1179589b0c74ab137e7b57cf6687, type: 3}
    - {fileID: 21300006, guid: bdca1179589b0c74ab137e7b57cf6687, type: 3}
    - {fileID: 21300008, guid: bdca1179589b0c74ab137e7b57cf6687, type: 3}
    - {fileID: 21300010, guid: bdca1179589b0c74ab137e7b57cf6687, type: 3}
    - {fileID: 21300012, guid: bdca1179589b0c74ab137e7b57cf6687, type: 3}
    - {fileID: 21300014, guid: bdca1179589b0c74ab137e7b57cf6687, type: 3}
    - {fileID: 21300016, guid: bdca1179589b0c74ab137e7b57cf6687, type: 3}
    - {fileID: 21300018, guid: bdca1179589b0c74ab137e7b57cf6687, type: 3}
    - {fileID: 21300000, guid: bdca1179589b0c74ab137e7b57cf6687, type: 3}
    - {fileID: 21300002, guid: bdca1179589b0c74ab137e7b57cf6687, type: 3}
    - {fileID: 21300004, guid: bdca1179589b0c74ab137e7b57cf6687, type: 3}
    - {fileID: 21300006, guid: bdca1179589b0c74ab137e7b57cf6687, type: 3}
    - {fileID: 21300008, guid: bdca1179589b0c74ab137e7b57cf6687, type: 3}
    - {fileID: 21300010, guid: bdca1179589b0c74ab137e7b57cf6687, type: 3}
    - {fileID: 21300012, guid: bdca1179589b0c74ab137e7b57cf6687, type: 3}
    - {fileID: 21300014, guid: bdca1179589b0c74ab137e7b57cf6687, type: 3}
    - {fileID: 21300016, guid: bdca1179589b0c74ab137e7b57cf6687, type: 3}
    - {fileID: 21300018, guid: bdca1179589b0c74ab137e7b57cf6687, type: 3}
  m_AnimationClipSettings:
    serializedVersion: 2
    m_AdditiveReferencePoseClip: {fileID: 0}
    m_AdditiveReferencePoseTime: 0
    m_StartTime: 0
    m_StopTime: 0.6666667
    m_OrientationOffsetY: 0
    m_Level: 0
    m_CycleOffset: 0
    m_HasAdditiveReferencePose: 0
    m_LoopTime: 1
    m_LoopBlend: 0
    m_LoopBlendOrientation: 0
    m_LoopBlendPositionY: 0
    m_LoopBlendPositionXZ: 0
    m_KeepOriginalOrientation: 0
    m_KeepOriginalPositionY: 1
    m_KeepOriginalPositionXZ: 0
    m_HeightFromFeet: 0
    m_Mirror: 0
  m_EditorCurves:
  - curve:
      serializedVersion: 2
      m_Curve:
      - serializedVersion: 2
        time: 0
        value: 0
        inSlope: 0
        outSlope: 0
        tangentMode: 136
      - serializedVersion: 2
        time: 0.33333334
        value: 0
        inSlope: 0
        outSlope: 0
        tangentMode: 136
      - serializedVersion: 2
        time: 0.6666667
        value: 0
        inSlope: 0
        outSlope: 0
        tangentMode: 136
      m_PreInfinity: 2
      m_PostInfinity: 2
      m_RotationOrder: 4
    attribute: localEulerAnglesRaw.x
    path: 
    classID: 4
    script: {fileID: 0}
  - curve:
      serializedVersion: 2
      m_Curve:
      - serializedVersion: 2
        time: 0
        value: 0
        inSlope: 0
        outSlope: 0
        tangentMode: 136
      - serializedVersion: 2
        time: 0.33333334
        value: 0
        inSlope: 0
        outSlope: 0
        tangentMode: 136
      - serializedVersion: 2
        time: 0.6666667
        value: 0
        inSlope: 0
        outSlope: 0
        tangentMode: 136
      m_PreInfinity: 2
      m_PostInfinity: 2
      m_RotationOrder: 4
    attribute: localEulerAnglesRaw.y
    path: 
    classID: 4
    script: {fileID: 0}
  - curve:
      serializedVersion: 2
      m_Curve:
      - serializedVersion: 2
        time: 0
        value: 0
        inSlope: 0
        outSlope: 0
        tangentMode: 136
      - serializedVersion: 2
        time: 0.33333334
        value: 30
        inSlope: 0
        outSlope: 0
        tangentMode: 136
      - serializedVersion: 2
        time: 0.6666667
        value: 30
        inSlope: 0
        outSlope: 0
        tangentMode: 136
      m_PreInfinity: 2
      m_PostInfinity: 2
      m_RotationOrder: 4
    attribute: localEulerAnglesRaw.z
    path: 
    classID: 4
    script: {fileID: 0}
  m_EulerEditorCurves:
  - curve:
      serializedVersion: 2
      m_Curve: []
      m_PreInfinity: 2
      m_PostInfinity: 2
      m_RotationOrder: 4
    attribute: m_LocalEulerAngles.x
    path: 
    classID: 4
    script: {fileID: 0}
  - curve:
      serializedVersion: 2
      m_Curve: []
      m_PreInfinity: 2
      m_PostInfinity: 2
      m_RotationOrder: 4
    attribute: m_LocalEulerAngles.y
    path: 
    classID: 4
    script: {fileID: 0}
  - curve:
      serializedVersion: 2
      m_Curve: []
      m_PreInfinity: 2
      m_PostInfinity: 2
      m_RotationOrder: 4
    attribute: m_LocalEulerAngles.z
    path: 
    classID: 4
    script: {fileID: 0}
  m_HasGenericRootTransform: 1
  m_HasMotionFloatCurves: 0
  m_GenerateMotionCurves: 0
  m_Events: []
