%YAML 1.1
%TAG !u! tag:unity3d.com,2011:
--- !u!74 &7400000
AnimationClip:
  m_ObjectHideFlags: 0
  m_PrefabParentObject: {fileID: 0}
  m_PrefabInternal: {fileID: 0}
  m_Name: DogMove Animation
  serializedVersion: 6
  m_Legacy: 0
  m_Compressed: 0
  m_UseHighQualityCurve: 1
  m_RotationCurves: []
  m_CompressedRotationCurves: []
  m_EulerCurves: []
  m_PositionCurves: []
  m_ScaleCurves: []
  m_FloatCurves:
  - curve:
      serializedVersion: 2
      m_Curve:
      - serializedVersion: 2
        time: 0
        value: -450
        inSlope: 0
        outSlope: -0
        tangentMode: 69
      - serializedVersion: 2
        time: 5
        value: -450
        inSlope: 0
        outSlope: 132
        tangentMode: 69
      - serializedVersion: 2
        time: 7.5
        value: -120
        inSlope: 132
        outSlope: 140
        tangentMode: 69
      - serializedVersion: 2
        time: 10
        value: 230
        inSlope: 140
        outSlope: -0
        tangentMode: 69
      - serializedVersion: 2
        time: 15
        value: 230
        inSlope: 0
        outSlope: -140
        tangentMode: 69
      - serializedVersion: 2
        time: 17.5
        value: -120
        inSlope: -140
        outSlope: -132
        tangentMode: 69
      - serializedVersion: 2
        time: 20
        value: -450
        inSlope: -132
        outSlope: 132
        tangentMode: 69
      m_PreInfinity: 2
      m_PostInfinity: 2
      m_RotationOrder: 4
    attribute: m_AnchoredPosition.x
    path: 
    classID: 224
    script: {fileID: 0}
  - curve:
      serializedVersion: 2
      m_Curve:
      - serializedVersion: 2
        time: 0
        value: 20
        inSlope: 0
        outSlope: -0
        tangentMode: 69
      - serializedVersion: 2
        time: 5
        value: 20
        inSlope: 0
        outSlope: -88
        tangentMode: 69
      - serializedVersion: 2
        time: 7.5
        value: -200
        inSlope: -88
        outSlope: 72
        tangentMode: 69
      - serializedVersion: 2
        time: 10
        value: -20
        inSlope: 72
        outSlope: -0
        tangentMode: 69
      - serializedVersion: 2
        time: 15
        value: -20
        inSlope: 0
        outSlope: -72
        tangentMode: 69
      - serializedVersion: 2
        time: 17.5
        value: -200
        inSlope: -72
        outSlope: 88
        tangentMode: 69
      - serializedVersion: 2
        time: 20
        value: 20
        inSlope: 88
        outSlope: -88
        tangentMode: 69
      m_PreInfinity: 2
      m_PostInfinity: 2
      m_RotationOrder: 4
    attribute: m_AnchoredPosition.y
    path: 
    classID: 224
    script: {fileID: 0}
  m_PPtrCurves: []
  m_SampleRate: 60
  m_WrapMode: 0
  m_Bounds:
    m_Center: {x: 0, y: 0, z: 0}
    m_Extent: {x: 0, y: 0, z: 0}
  m_ClipBindingConstant:
    genericBindings:
    - serializedVersion: 2
      path: 0
      attribute: 1460864421
      script: {fileID: 0}
      typeID: 224
      customType: 0
      isPPtrCurve: 0
    - serializedVersion: 2
      path: 0
      attribute: 538195251
      script: {fileID: 0}
      typeID: 224
      customType: 0
      isPPtrCurve: 0
    pptrCurveMapping: []
  m_AnimationClipSettings:
    serializedVersion: 2
    m_AdditiveReferencePoseClip: {fileID: 0}
    m_AdditiveReferencePoseTime: 0
    m_StartTime: 0
    m_StopTime: 20
    m_OrientationOffsetY: 0
    m_Level: 0
    m_CycleOffset: 0
    m_HasAdditiveReferencePose: 0
    m_LoopTime: 1
    m_LoopBlend: 0
    m_LoopBlendOrientation: 0
    m_LoopBlendPositionY: 0
    m_LoopBlendPositionXZ: 0
    m_KeepOriginalOrientation: 0
    m_KeepOriginalPositionY: 1
    m_KeepOriginalPositionXZ: 0
    m_HeightFromFeet: 0
    m_Mirror: 0
  m_EditorCurves:
  - curve:
      serializedVersion: 2
      m_Curve:
      - serializedVersion: 2
        time: 0
        value: -450
        inSlope: 0
        outSlope: -0
        tangentMode: 69
      - serializedVersion: 2
        time: 5
        value: -450
        inSlope: 0
        outSlope: 132
        tangentMode: 69
      - serializedVersion: 2
        time: 7.5
        value: -120
        inSlope: 132
        outSlope: 140
        tangentMode: 69
      - serializedVersion: 2
        time: 10
        value: 230
        inSlope: 140
        outSlope: -0
        tangentMode: 69
      - serializedVersion: 2
        time: 15
        value: 230
        inSlope: 0
        outSlope: -140
        tangentMode: 69
      - serializedVersion: 2
        time: 17.5
        value: -120
        inSlope: -140
        outSlope: -132
        tangentMode: 69
      - serializedVersion: 2
        time: 20
        value: -450
        inSlope: -132
        outSlope: 132
        tangentMode: 69
      m_PreInfinity: 2
      m_PostInfinity: 2
      m_RotationOrder: 4
    attribute: m_AnchoredPosition.x
    path: 
    classID: 224
    script: {fileID: 0}
  - curve:
      serializedVersion: 2
      m_Curve:
      - serializedVersion: 2
        time: 0
        value: 20
        inSlope: 0
        outSlope: -0
        tangentMode: 69
      - serializedVersion: 2
        time: 5
        value: 20
        inSlope: 0
        outSlope: -88
        tangentMode: 69
      - serializedVersion: 2
        time: 7.5
        value: -200
        inSlope: -88
        outSlope: 72
        tangentMode: 69
      - serializedVersion: 2
        time: 10
        value: -20
        inSlope: 72
        outSlope: -0
        tangentMode: 69
      - serializedVersion: 2
        time: 15
        value: -20
        inSlope: 0
        outSlope: -72
        tangentMode: 69
      - serializedVersion: 2
        time: 17.5
        value: -200
        inSlope: -72
        outSlope: 88
        tangentMode: 69
      - serializedVersion: 2
        time: 20
        value: 20
        inSlope: 88
        outSlope: -88
        tangentMode: 69
      m_PreInfinity: 2
      m_PostInfinity: 2
      m_RotationOrder: 4
    attribute: m_AnchoredPosition.y
    path: 
    classID: 224
    script: {fileID: 0}
  m_EulerEditorCurves: []
  m_HasGenericRootTransform: 0
  m_HasMotionFloatCurves: 0
  m_GenerateMotionCurves: 0
  m_Events: []
