{
  "PetObjects": [
    {
      "Item": 0,
      "Name": "Cat",
      "Price": 120,
      "TapAmount": 50,
      "IsApply": false,
      "IsBuy": false
    },
    {
      "Item": 0,
      "Name": "Dog",
      "Price": 120,
      "TapAmount": 50,
      "IsApply": false,
      "IsBuy": false
    }
  ],
  "AppearanceObject": {
    "PlayerCharachter": 0,
    "Items": [
      {
        "Type": 0,
        "ItemName": "Hair01",
        "Price": 100000,
        "IsBuy": true,
        "IsApply": true
      },
      {
        "Type": 0,
        "ItemName": "Hair02",
        "Price": 100000,
        "IsBuy": false,
        "IsApply": false
      },
      {
        "Type": 0,
        "ItemName": "Hair03",
        "Price": 100000,
        "IsBuy": false,
        "IsApply": false
      },
      {
        "Type": 0,
        "ItemName": "Hair04",
        "Price": 100000,
        "IsBuy": false,
        "IsApply": false
      },
      {
        "Type": 0,
        "ItemName": "Hair05",
        "Price": 100000,
        "IsBuy": false,
        "IsApply": false
      },
      {
        "Type": 0,
        "ItemName": "Hair06",
        "Price": 100000,
        "IsBuy": false,
        "IsApply": false
      },
      {
        "Type": 0,
        "ItemName": "Hair07",
        "Price": 100000,
        "IsBuy": false,
        "IsApply": false
      },
      {
        "Type": 0,
        "ItemName": "Hair08",
        "Price": 100000,
        "IsBuy": false,
        "IsApply": false
      },
      {
        "Type": 0,
        "ItemName": "Hair09",
        "Price": 100000,
        "IsBuy": false,
        "IsApply": false
      },
      {
        "Type": 0,
        "ItemName": "Hair10",
        "Price": 100000,
        "IsBuy": false,
        "IsApply": false
      },
      {
        "Type": 0,
        "ItemName": "Hair11",
        "Price": 100000,
        "IsBuy": false,
        "IsApply": false
      },
      {
        "Type": 0,
        "ItemName": "Hair12",
        "Price": 100000,
        "IsBuy": false,
        "IsApply": false
      },
      {
        "Type": 0,
        "ItemName": "Hair13",
        "Price": 100000,
        "IsBuy": false,
        "IsApply": false
      },
      {
        "Type": 0,
        "ItemName": "Hair14",
        "Price": 100000,
        "IsBuy": false,
        "IsApply": false
      },
      {
        "Type": 1,
        "ItemName": "Cloth01",
        "Price": 1000000,
        "IsBuy": true,
        "IsApply": true
      },
      {
        "Type": 1,
        "ItemName": "Cloth02",
        "Price": 1000000,
        "IsBuy": false,
        "IsApply": false
      },
      {
        "Type": 1,
        "ItemName": "Cloth03",
        "Price": 1000000,
        "IsBuy": false,
        "IsApply": false
      },
      {
        "Type": 1,
        "ItemName": "Cloth04",
        "Price": 1000000,
        "IsBuy": false,
        "IsApply": false
      },
      {
        "Type": 1,
        "ItemName": "Cloth05",
        "Price": 1000000,
        "IsBuy": false,
        "IsApply": false
      },
      {
        "Type": 1,
        "ItemName": "Cloth06",
        "Price": 1000000,
        "IsBuy": false,
        "IsApply": false
      },
      {
        "Type": 1,
        "ItemName": "Cloth07",
        "Price": 1000000,
        "IsBuy": false,
        "IsApply": false
      },
      {
        "Type": 1,
        "ItemName": "Cloth08",
        "Price": 1000000,
        "IsBuy": false,
        "IsApply": false
      },
      {
        "Type": 1,
        "ItemName": "Cloth09",
        "Price": 1000000,
        "IsBuy": false,
        "IsApply": false
      },
      {
        "Type": 1,
        "ItemName": "Cloth10",
        "Price": 1000000,
        "IsBuy": false,
        "IsApply": false
      },
      {
        "Type": 1,
        "ItemName": "Cloth11",
        "Price": 1000000,
        "IsBuy": false,
        "IsApply": false
      },
      {
        "Type": 1,
        "ItemName": "Cloth12",
        "Price": 1000000,
        "IsBuy": false,
        "IsApply": false
      },
      {
        "Type": 1,
        "ItemName": "Cloth13",
        "Price": 1000000,
        "IsBuy": false,
        "IsApply": false
      },
      {
        "Type": 1,
        "ItemName": "Cloth14",
        "Price": 1000000,
        "IsBuy": false,
        "IsApply": false
      },
      {
        "Type": 2,
        "ItemName": "Glass01",
        "Price": 10000,
        "IsBuy": true,
        "IsApply": true
      },
      {
        "Type": 2,
        "ItemName": "Glass02",
        "Price": 10000,
        "IsBuy": false,
        "IsApply": false
      },
      {
        "Type": 2,
        "ItemName": "Glass03",
        "Price": 10000,
        "IsBuy": false,
        "IsApply": false
      },
      {
        "Type": 2,
        "ItemName": "Glass04",
        "Price": 10000,
        "IsBuy": false,
        "IsApply": false
      },
      {
        "Type": 2,
        "ItemName": "Glass05",
        "Price": 10000,
        "IsBuy": false,
        "IsApply": false
      },
      {
        "Type": 2,
        "ItemName": "Glass06",
        "Price": 10000,
        "IsBuy": false,
        "IsApply": false
      },
      {
        "Type": 2,
        "ItemName": "Glass07",
        "Price": 10000,
        "IsBuy": false,
        "IsApply": false
      },
      {
        "Type": 2,
        "ItemName": "Glass08",
        "Price": 10000,
        "IsBuy": false,
        "IsApply": false
      },
      {
        "Type": 2,
        "ItemName": "Glass09",
        "Price": 10000,
        "IsBuy": false,
        "IsApply": false
      },
      {
        "Type": 2,
        "ItemName": "Glass10",
        "Price": 10000,
        "IsBuy": false,
        "IsApply": false
      },
      {
        "Type": 2,
        "ItemName": "Glass11",
        "Price": 10000,
        "IsBuy": false,
        "IsApply": false
      },
      {
        "Type": 2,
        "ItemName": "Glass12",
        "Price": 10000,
        "IsBuy": false,
        "IsApply": false
      }
    ]
      },
  "RoomSkinObject": {
    "PlayerRoomSkin": 0,
    "RoomSkins": [
      {
        "RoomSkin": 1,
        "IsBuy": false,
        "IsApply": false,
        "Price": 1000,
        "AdditionalValue": 11480000000
      }
    ]
  }
} 